2023-07-19 15:36:03,847 [INFO] Activator:176 - 


2023-07-19 15:36:03,858 [INFO] Activator:177 - !SESSION log4j initialized
2023-07-19 15:36:10,673 [INFO] LogOutputStream:77 - [STDOUT_REDIRECT] 
2023-07-19 15:36:29,893 [ERROR] LogOutputStream:75 - [STDERR_REDIRECT] SLF4J: Failed to load class "org.slf4j.impl.StaticLoggerBinder".
2023-07-19 15:36:29,894 [ERROR] LogOutputStream:75 - [STDERR_REDIRECT] SLF4J: Defaulting to no-operation (NOP) logger implementation
2023-07-19 15:36:29,895 [ERROR] LogOutputStream:75 - [STDERR_REDIRECT] SLF4J: See http://www.slf4j.org/codes.html#StaticLoggerBinder for further details.
